time,consumption
2022-08-25 00:00:00+03:00,0.24502465010662178
2022-08-25 01:00:00+03:00,0.19801926231528355
2022-08-25 02:00:00+03:00,0.20867012482844194
2022-08-25 03:00:00+03:00,0.20999555279866866
2022-08-25 04:00:00+03:00,0.8284412843397304
2022-08-25 05:00:00+03:00,0.22699008954417615
2022-08-25 06:00:00+03:00,0.23835884988647688
2022-08-25 07:00:00+03:00,0.43131487319400774
2022-08-25 08:00:00+03:00,0.4918231914634026
2022-08-25 09:00:00+03:00,0.6817173481933543
2022-08-25 10:00:00+03:00,0.6427866580889209
2022-08-25 11:00:00+03:00,0.6142344038588727
2022-08-25 12:00:00+03:00,0.597663786961298
2022-08-25 13:00:00+03:00,0.6360605802075532
2022-08-25 14:00:00+03:00,0.7103494318644918
2022-08-25 15:00:00+03:00,0.8677291150621366
2022-08-25 16:00:00+03:00,0.8664120030538187
2022-08-25 17:00:00+03:00,0.9450615669214331
2022-08-25 18:00:00+03:00,0.8251724209222429
2022-08-25 19:00:00+03:00,0.6126497932207675
2022-08-25 20:00:00+03:00,0.607959013003502
2022-08-25 21:00:00+03:00,0.7770347474524903
2022-08-25 22:00:00+03:00,0.656401444021405
2022-08-25 23:00:00+03:00,0.30696676933473477
2022-08-26 00:00:00+03:00,0.450018767245347
2022-08-26 01:00:00+03:00,0.32748710832978506
2022-08-26 02:00:00+03:00,0.2498780444410979
2022-08-26 03:00:00+03:00,0.24815579210624245
2022-08-26 04:00:00+03:00,0.7378184918321659
2022-08-26 05:00:00+03:00,0.23581489579252635
2022-08-26 06:00:00+03:00,0.22671889282183372
2022-08-26 07:00:00+03:00,0.3795796503421551
2022-08-26 08:00:00+03:00,0.44345420993643203
2022-08-26 09:00:00+03:00,0.6326220093956738
2022-08-26 10:00:00+03:00,0.5622602282195961
2022-08-26 11:00:00+03:00,0.5688791469013235
2022-08-26 12:00:00+03:00,0.6024383417390888
2022-08-26 13:00:00+03:00,0.6120396822107684
2022-08-26 14:00:00+03:00,0.6417978080069138
2022-08-26 15:00:00+03:00,0.754374744994829
2022-08-26 16:00:00+03:00,0.8234551920063917
2022-08-26 17:00:00+03:00,0.9031344036229876
2022-08-26 18:00:00+03:00,0.8210436580042146
2022-08-26 19:00:00+03:00,0.6177182712827528
2022-08-26 20:00:00+03:00,0.6164986556666443
2022-08-26 21:00:00+03:00,0.7296835361592586
2022-08-26 22:00:00+03:00,0.4060138919843546
2022-08-26 23:00:00+03:00,0.25702552415264385
2022-08-27 00:00:00+03:00,0.25267581050568755
2022-08-27 01:00:00+03:00,0.24920163601908818
2022-08-27 02:00:00+03:00,0.27935176123458305
2022-08-27 03:00:00+03:00,0.23587450616353045
2022-08-27 04:00:00+03:00,0.8630012803242967
2022-08-27 05:00:00+03:00,0.28325631073510205
2022-08-27 06:00:00+03:00,0.24599090032281207
2022-08-27 07:00:00+03:00,0.41843990610847304
2022-08-27 08:00:00+03:00,0.5569364869002111
2022-08-27 09:00:00+03:00,0.7645483901322774
2022-08-27 10:00:00+03:00,0.5868864970915899
2022-08-27 11:00:00+03:00,0.6048075558351149
2022-08-27 12:00:00+03:00,0.6585638345559742
2022-08-27 13:00:00+03:00,0.5661644739370613
2022-08-27 14:00:00+03:00,0.6065751006981883
2022-08-27 15:00:00+03:00,0.5781127079757669
2022-08-27 16:00:00+03:00,0.629773563191992
2022-08-27 17:00:00+03:00,0.8060759326458047
2022-08-27 18:00:00+03:00,0.6467802646761629
2022-08-27 19:00:00+03:00,0.6043002066343243
2022-08-27 20:00:00+03:00,0.6430390370907779
2022-08-27 21:00:00+03:00,0.7603686136069183
2022-08-27 22:00:00+03:00,0.5220647373430697
2022-08-27 23:00:00+03:00,0.25450994457834913
2022-08-28 00:00:00+03:00,0.20212637983635034
2022-08-28 01:00:00+03:00,0.20828673929807023
2022-08-28 02:00:00+03:00,0.18658931229351444
2022-08-28 03:00:00+03:00,0.18695301452820978
2022-08-28 04:00:00+03:00,0.717774821108384
2022-08-28 05:00:00+03:00,0.32420649243382527
2022-08-28 06:00:00+03:00,0.22686968187625567
2022-08-28 07:00:00+03:00,0.4118614421505418
2022-08-28 08:00:00+03:00,0.5151178662969471
2022-08-28 09:00:00+03:00,0.8004076082834568
2022-08-28 10:00:00+03:00,0.7001274328697596
2022-08-28 11:00:00+03:00,0.6252292284901901
2022-08-28 12:00:00+03:00,0.5983627460136166
2022-08-28 13:00:00+03:00,0.5559851249614135
2022-08-28 14:00:00+03:00,0.5465599956993221
2022-08-28 15:00:00+03:00,0.5876584376688628
2022-08-28 16:00:00+03:00,0.6098368390638214
2022-08-28 17:00:00+03:00,0.7446467440721655
2022-08-28 18:00:00+03:00,0.656294693349588
2022-08-28 19:00:00+03:00,0.5362068997141256
2022-08-28 20:00:00+03:00,0.556749224030602
2022-08-28 21:00:00+03:00,0.7394130709562245
2022-08-28 22:00:00+03:00,0.4952634433037748
2022-08-28 23:00:00+03:00,0.24028892920296635
2022-08-29 00:00:00+03:00,0.19988749713673332
2022-08-29 01:00:00+03:00,0.20334889412096485
2022-08-29 02:00:00+03:00,0.2742644883646999
2022-08-29 03:00:00+03:00,0.24554355973752984
2022-08-29 04:00:00+03:00,0.9032149475309952
2022-08-29 05:00:00+03:00,0.31574382211870056
2022-08-29 06:00:00+03:00,0.24119328036513432
2022-08-29 07:00:00+03:00,0.3947747780990155
2022-08-29 08:00:00+03:00,0.4134661229768792
2022-08-29 09:00:00+03:00,0.679358953873656
2022-08-29 10:00:00+03:00,0.5049810908838561
2022-08-29 11:00:00+03:00,0.516544960450644
2022-08-29 12:00:00+03:00,0.5450650567500241
2022-08-29 13:00:00+03:00,0.6152953953596123
2022-08-29 14:00:00+03:00,0.6468271836781004
2022-08-29 15:00:00+03:00,0.7166252640656661
2022-08-29 16:00:00+03:00,0.8073217639952943
2022-08-29 17:00:00+03:00,0.8349664505924166
2022-08-29 18:00:00+03:00,0.7787392834040342
2022-08-29 19:00:00+03:00,0.6246717391608574
2022-08-29 20:00:00+03:00,0.6248577946172695
2022-08-29 21:00:00+03:00,0.7926767443263555
2022-08-29 22:00:00+03:00,0.5140246597056275
2022-08-29 23:00:00+03:00,0.25654602642643876
2022-08-30 00:00:00+03:00,0.29452084938970985
2022-08-30 01:00:00+03:00,0.34306577405895733
2022-08-30 02:00:00+03:00,0.42179231038569326
2022-08-30 03:00:00+03:00,0.27231337272262174
2022-08-30 04:00:00+03:00,0.7821026634930329
2022-08-30 05:00:00+03:00,0.3866759795530302
2022-08-30 06:00:00+03:00,0.2673575990508775
2022-08-30 07:00:00+03:00,0.48674914566031513
2022-08-30 08:00:00+03:00,0.5141407810783793
2022-08-30 09:00:00+03:00,0.4382162900702138
2022-08-30 10:00:00+03:00,0.38356917994810447
2022-08-30 11:00:00+03:00,0.43510710353162
2022-08-30 12:00:00+03:00,0.5575713030212749
2022-08-30 13:00:00+03:00,0.4024168685027117
2022-08-30 14:00:00+03:00,0.49118717766483044
2022-08-30 15:00:00+03:00,0.541131315578991
2022-08-30 16:00:00+03:00,0.5978007658975033
2022-08-30 17:00:00+03:00,0.6075220708738407
2022-08-30 18:00:00+03:00,0.4906471304971538
2022-08-30 19:00:00+03:00,0.4178413471134538
2022-08-30 20:00:00+03:00,0.4861189972296436
2022-08-30 21:00:00+03:00,0.7354326986877499
2022-08-30 22:00:00+03:00,0.45429921507000565
2022-08-30 23:00:00+03:00,0.2677300702560928
2022-08-31 00:00:00+03:00,0.2797677104366248
2022-08-31 01:00:00+03:00,0.41199623480502223
2022-08-31 02:00:00+03:00,0.44746529273103625
2022-08-31 03:00:00+03:00,0.40710494096736033
2022-08-31 04:00:00+03:00,0.9013135133603283
2022-08-31 05:00:00+03:00,0.5822957657092306
2022-08-31 06:00:00+03:00,0.41757382216749417
2022-08-31 07:00:00+03:00,0.46138581735510775
2022-08-31 08:00:00+03:00,0.35608469955674793
2022-08-31 09:00:00+03:00,0.5193854218524654
2022-08-31 10:00:00+03:00,0.3454084449798335
2022-08-31 11:00:00+03:00,0.40608050058542733
2022-08-31 12:00:00+03:00,0.31292107560414656
2022-08-31 13:00:00+03:00,0.326145922135138
2022-08-31 14:00:00+03:00,0.3751175340752295
2022-08-31 15:00:00+03:00,0.5856959409454017
2022-08-31 16:00:00+03:00,0.48936697360183634
2022-08-31 17:00:00+03:00,0.5098808265286654
2022-08-31 18:00:00+03:00,0.3609119963090746
2022-08-31 19:00:00+03:00,0.34047809331010603
2022-08-31 20:00:00+03:00,0.36823561934007554
2022-08-31 21:00:00+03:00,0.5162058019028607
2022-08-31 22:00:00+03:00,0.5869864622311611
2022-08-31 23:00:00+03:00,0.3424792855289705
