time,consumption
2022-08-25 00:00:00+03:00,0.33157948
2022-08-25 01:00:00+03:00,0.3992464
2022-08-25 02:00:00+03:00,0.35346636
2022-08-25 03:00:00+03:00,0.36433402
2022-08-25 04:00:00+03:00,0.59563506
2022-08-25 05:00:00+03:00,0.48758224
2022-08-25 06:00:00+03:00,0.48691198
2022-08-25 07:00:00+03:00,0.5171151
2022-08-25 08:00:00+03:00,0.75942504
2022-08-25 09:00:00+03:00,0.8224445
2022-08-25 10:00:00+03:00,0.7024699
2022-08-25 11:00:00+03:00,0.7411872
2022-08-25 12:00:00+03:00,0.7590972
2022-08-25 13:00:00+03:00,0.804698
2022-08-25 14:00:00+03:00,0.7717248
2022-08-25 15:00:00+03:00,0.9747493
2022-08-25 16:00:00+03:00,0.7218311
2022-08-25 17:00:00+03:00,0.98321134
2022-08-25 18:00:00+03:00,0.8653942
2022-08-25 19:00:00+03:00,0.69531137
2022-08-25 20:00:00+03:00,0.95249087
2022-08-25 21:00:00+03:00,0.9478261
2022-08-25 22:00:00+03:00,0.65194345
2022-08-25 23:00:00+03:00,0.37074137
2022-08-26 00:00:00+03:00,0.3091016
2022-08-26 01:00:00+03:00,0.31773582
2022-08-26 02:00:00+03:00,0.32924402
2022-08-26 03:00:00+03:00,0.34038407
2022-08-26 04:00:00+03:00,0.6240723
2022-08-26 05:00:00+03:00,0.48801124
2022-08-26 06:00:00+03:00,0.28199598
2022-08-26 07:00:00+03:00,0.46249557
2022-08-26 08:00:00+03:00,0.687332
2022-08-26 09:00:00+03:00,0.8301797
2022-08-26 10:00:00+03:00,0.6599621
2022-08-26 11:00:00+03:00,0.7802178
2022-08-26 12:00:00+03:00,0.7331422
2022-08-26 13:00:00+03:00,0.75110424
2022-08-26 14:00:00+03:00,1.075448
2022-08-26 15:00:00+03:00,0.72844905
2022-08-26 16:00:00+03:00,0.84583014
2022-08-26 17:00:00+03:00,0.9639423
2022-08-26 18:00:00+03:00,0.78281343
2022-08-26 19:00:00+03:00,0.72759634
2022-08-26 20:00:00+03:00,0.86044323
2022-08-26 21:00:00+03:00,0.7995224
2022-08-26 22:00:00+03:00,0.66049886
2022-08-26 23:00:00+03:00,0.34621468
2022-08-27 00:00:00+03:00,0.39193246
2022-08-27 01:00:00+03:00,0.32648063
2022-08-27 02:00:00+03:00,0.35744733
2022-08-27 03:00:00+03:00,0.35755688
2022-08-27 04:00:00+03:00,0.6653954
2022-08-27 05:00:00+03:00,0.42304218
2022-08-27 06:00:00+03:00,0.49589732
2022-08-27 07:00:00+03:00,0.39506376
2022-08-27 08:00:00+03:00,0.65663373
2022-08-27 09:00:00+03:00,0.7339694
2022-08-27 10:00:00+03:00,0.69658375
2022-08-27 11:00:00+03:00,0.7197475
2022-08-27 12:00:00+03:00,0.7282675
2022-08-27 13:00:00+03:00,0.8000925
2022-08-27 14:00:00+03:00,0.6820071
2022-08-27 15:00:00+03:00,0.7373597
2022-08-27 16:00:00+03:00,0.73438746
2022-08-27 17:00:00+03:00,0.7966546
2022-08-27 18:00:00+03:00,0.99503094
2022-08-27 19:00:00+03:00,0.7973152
2022-08-27 20:00:00+03:00,0.8331114
2022-08-27 21:00:00+03:00,0.8420001
2022-08-27 22:00:00+03:00,0.6935892
2022-08-27 23:00:00+03:00,0.33855966
2022-08-28 00:00:00+03:00,0.41294298
2022-08-28 01:00:00+03:00,0.2909082
2022-08-28 02:00:00+03:00,0.16249332
2022-08-28 03:00:00+03:00,0.28012058
2022-08-28 04:00:00+03:00,0.43647987
2022-08-28 05:00:00+03:00,0.45643038
2022-08-28 06:00:00+03:00,0.45101288
2022-08-28 07:00:00+03:00,0.44711924
2022-08-28 08:00:00+03:00,0.7381005
2022-08-28 09:00:00+03:00,0.8109226
2022-08-28 10:00:00+03:00,0.71619743
2022-08-28 11:00:00+03:00,0.7577199
2022-08-28 12:00:00+03:00,0.5210985
2022-08-28 13:00:00+03:00,0.49985164
2022-08-28 14:00:00+03:00,0.55776745
2022-08-28 15:00:00+03:00,0.62391025
2022-08-28 16:00:00+03:00,0.535723
2022-08-28 17:00:00+03:00,0.816198
2022-08-28 18:00:00+03:00,0.80462825
2022-08-28 19:00:00+03:00,0.724535
2022-08-28 20:00:00+03:00,0.7901972
2022-08-28 21:00:00+03:00,0.83523405
2022-08-28 22:00:00+03:00,0.6348043
2022-08-28 23:00:00+03:00,0.54699284
2022-08-29 00:00:00+03:00,0.26993513
2022-08-29 01:00:00+03:00,0.25411993
2022-08-29 02:00:00+03:00,0.27977243
2022-08-29 03:00:00+03:00,0.29006204
2022-08-29 04:00:00+03:00,0.56833893
2022-08-29 05:00:00+03:00,0.46124274
2022-08-29 06:00:00+03:00,0.48745963
2022-08-29 07:00:00+03:00,0.4320815
2022-08-29 08:00:00+03:00,0.70189005
2022-08-29 09:00:00+03:00,0.8254884
2022-08-29 10:00:00+03:00,0.67388403
2022-08-29 11:00:00+03:00,0.5052557
2022-08-29 12:00:00+03:00,0.6303467
2022-08-29 13:00:00+03:00,0.6199659
2022-08-29 14:00:00+03:00,0.61758804
2022-08-29 15:00:00+03:00,0.5609993
2022-08-29 16:00:00+03:00,0.6031234
2022-08-29 17:00:00+03:00,1.000697
2022-08-29 18:00:00+03:00,1.0842613
2022-08-29 19:00:00+03:00,1.1392486
2022-08-29 20:00:00+03:00,1.0822563
2022-08-29 21:00:00+03:00,0.8388943
2022-08-29 22:00:00+03:00,0.78317755
2022-08-29 23:00:00+03:00,0.6397919
2022-08-30 00:00:00+03:00,0.25780648
2022-08-30 01:00:00+03:00,0.35216767
2022-08-30 02:00:00+03:00,0.37475935
2022-08-30 03:00:00+03:00,0.33401737
2022-08-30 04:00:00+03:00,0.64133227
2022-08-30 05:00:00+03:00,0.3724029
2022-08-30 06:00:00+03:00,0.43204936
2022-08-30 07:00:00+03:00,0.50632846
2022-08-30 08:00:00+03:00,0.7203648
2022-08-30 09:00:00+03:00,0.8700706
2022-08-30 10:00:00+03:00,0.4919705
2022-08-30 11:00:00+03:00,0.40461144
2022-08-30 12:00:00+03:00,0.45575634
2022-08-30 13:00:00+03:00,0.39006042
2022-08-30 14:00:00+03:00,0.44483653
2022-08-30 15:00:00+03:00,0.53980446
2022-08-30 16:00:00+03:00,0.5287919
2022-08-30 17:00:00+03:00,1.1187543
2022-08-30 18:00:00+03:00,0.7702162
2022-08-30 19:00:00+03:00,0.7813491
2022-08-30 20:00:00+03:00,0.8904687
2022-08-30 21:00:00+03:00,1.1453112
2022-08-30 22:00:00+03:00,0.7477316
2022-08-30 23:00:00+03:00,0.38503498
2022-08-31 00:00:00+03:00,0.29359752
2022-08-31 01:00:00+03:00,0.45185557
2022-08-31 02:00:00+03:00,0.54436576
2022-08-31 03:00:00+03:00,0.5433575
2022-08-31 04:00:00+03:00,0.6945938
2022-08-31 05:00:00+03:00,0.6467154
2022-08-31 06:00:00+03:00,0.83314264
2022-08-31 07:00:00+03:00,0.6903907
2022-08-31 08:00:00+03:00,0.69872385
2022-08-31 09:00:00+03:00,0.8240775
2022-08-31 10:00:00+03:00,0.48762837
2022-08-31 11:00:00+03:00,0.6587083
2022-08-31 12:00:00+03:00,0.47270837
2022-08-31 13:00:00+03:00,0.45782188
2022-08-31 14:00:00+03:00,0.41596273
2022-08-31 15:00:00+03:00,0.39706415
2022-08-31 16:00:00+03:00,0.48179692
2022-08-31 17:00:00+03:00,1.0787435
2022-08-31 18:00:00+03:00,0.7390201
2022-08-31 19:00:00+03:00,0.74117154
2022-08-31 20:00:00+03:00,0.96993494
2022-08-31 21:00:00+03:00,0.9916906
2022-08-31 22:00:00+03:00,0.70556706
2022-08-31 23:00:00+03:00,0.7685703
